flrsh-site - dplyr is production
…
data.table is another data.frame oriented data manipulation package. It is indisputably, until recently with the publication of collapse, the fastest in memory data.frame manipulation package in the R ecosystem. However, to use data.table, one has to learn a fairly idiosyncratic “i, j, by” syntax (data.table uses super-powered version of base R’s bracket indexing). Learning a new syntax can be a deterrent which is why I think data.table is not as widely adopted as perhaps ought to be.

As a motivating example, let’s adapt the example from the Introduction to data.table vignette.

Using the nycflights13 dataset, we can count the number of American Airlines flights by origin, destinations, and arrange them. Using traditional dplyr our code might look like this:

library(dplyr)
library(nycflights13)

flights |>
  filter(carrier == "AA") |>
  count(origin, dest) |>
  arrange(origin, desc(dest))

# A tibble: 25 × 3
   origin dest      n
   <chr>  <chr> <int>
 1 EWR    MIA    1068
 2 EWR    LAX     365
 3 EWR    DFW    2054
 4 JFK    TPA     311
 5 JFK    STT     303
 6 JFK    SJU    1099
 7 JFK    SFO    1422
 8 JFK    SEA     365
 9 JFK    SAN     365
10 JFK    ORD     365
# ℹ 15 more rows
…
In this bench mark, data.table is just about 4.5 times faster than dplyr! That’s nothing to scoff at. Maybe even more significantly, data.table used far less memory! Sure, 10mb isn’t too much now. But what about when we’re working with 10 million rows in memory? You will feel the difference then.

To get this level of performance, you don’t have to actually start writing data.table code. You can instead use dtplyr.

library(dtplyr)

fl_lazy <- lazy_dt(flights)

fl_lazy |>
  filter(carrier == "AA") |>
  count(origin, dest) |>
  arrange(origin, desc(dest))

Source: local data table [25 x 3]
Call:   setorder(`_DT1`[carrier == "AA"][, .(n = .N), keyby = .(origin, 
    dest)], origin, -dest, na.last = TRUE)

  origin dest      n
  <chr>  <chr> <int>
1 EWR    MIA    1068
2 EWR    LAX     365
3 EWR    DFW    2054
4 JFK    TPA     311
5 JFK    STT     303
6 JFK    SJU    1099
# ℹ 19 more rows
…
The manual page for lazy_dt() says

“A lazy data.table captures the intent of dplyr verbs, only actually performing computation when requested…”

This is similar to the concept of lazy function argument evaluation. But instead of delaying evaluation, dtplyr is building up an expression that will eventually be evaluated.

res <-
  fl_lazy |>
  filter(carrier == "AA") |>
  count(origin, dest) |>
  arrange(origin, desc(dest))

res

Source: local data table [25 x 3]
Call:   setorder(`_DT1`[carrier == "AA"][, .(n = .N), keyby = .(origin, 
    dest)], origin, -dest, na.last = TRUE)

  origin dest      n
  <chr>  <chr> <int>
1 EWR    MIA    1068
2 EWR    LAX     365
3 EWR    DFW    2054
4 JFK    TPA     311
5 JFK    STT     303
6 JFK    SJU    1099
# ℹ 19 more rows
…
setorder(`_DT1`[carrier == "AA"][, .(n = .N), keyby = .(origin, 
    dest)], origin, -dest, na.last = TRUE)

dtplyr is essentially acting is a translator between a common syntax in dplyr and an execution engine in data.table. dtplyr is being lazy in that it is not running any code but instead it is building up a set of instructions that will be executed.

To make dtplyr actually execute the code that it has built up, we need to request the results. This is done by using dplyr::collect().

Note

Note that you can also use as.data.table(), as_tibble(), as.data.frame() to bring the results into a data.frame.

collect(res)

# A tibble: 25 × 3
   origin dest      n
   <chr>  <chr> <int>
 1 EWR    MIA    1068
 2 EWR    LAX     365
 3 EWR    DFW    2054
 4 JFK    TPA     311
 5 JFK    STT     303
 6 JFK    SJU    1099
 7 JFK    SFO    1422
 8 JFK    SEA     365
 9 JFK    SAN     365
10 JFK    ORD     365
# ℹ 15 more rows
…
